…
### Describing the dataset

The `instacart` dataset as 1384617 rows and 15 columns. Important
variables include unique identifier of customer, order date, days since
previous order, and specific information about the product purchased.
There are a total of 131209 orders recorded, and 39123 recorded. These
products range from 21 different departments.

### Answering questions

``` r
instacart |> count(aisle) |> arrange(desc(n))
```

    ## # A tibble: 134 × 2
    ##    aisle                              n
    ##    <chr>                          <int>
    ##  1 fresh vegetables              150609
    ##  2 fresh fruits                  150473
    ##  3 packaged vegetables fruits     78493
    ##  4 yogurt                         55240
    ##  5 packaged cheese                41699
    ##  6 water seltzer sparkling water  36617
    ##  7 milk                           32644
    ##  8 chips pretzels                 31269
    ##  9 soy lactosefree                26240
    ## 10 bread                          23635
    ## # ℹ 124 more rows
…
